00000000 .text
00000808 .rodata
0000085c .eh_frame
00000b40 .bss
00000000 .comment
00000000 .debug_aranges
00000000 .debug_info
00000000 .debug_abbrev
00000000 .debug_line
00000000 .debug_str
00000000 .debug_loc
00000000 .debug_ranges
00000000 cat.c
00000000 ulib.c
00000000 printf.c
00000410 printint
00000848 digits.1040
00000000 umalloc.c
00000b40 freep
00000b44 base
00000110 strcpy
000004b0 printf
00000330 memmove
000003aa mknod
00000220 gets
000003e2 getpid
00000090 cat
00000710 malloc
000003f2 sleep
00000372 pipe
00000382 write
000003ba fstat
00000392 kill
000003d2 chdir
0000039a exec
0000036a wait
0000037a read
000003b2 unlink
0000035a fork
000003ea sbrk
000003fa uptime
00000b24 __bss_start
000001c0 memset
00000000 main
00000402 getcount
00000140 strcmp
000003da dup
00000b60 buf
000002a0 stat
00000b24 _edata
00000d60 _end
000003c2 link
00000362 exit
000002f0 atoi
00000190 strlen
000003a2 open
000001e0 strchr
000003ca mkdir
0000038a close
00000680 free
