00000000 .text
00000768 .rodata
0000078c .eh_frame
00000a24 .bss
00000000 .comment
00000000 .debug_aranges
00000000 .debug_info
00000000 .debug_abbrev
00000000 .debug_line
00000000 .debug_str
00000000 .debug_loc
00000000 .debug_ranges
00000000 echo.c
00000000 ulib.c
00000000 printf.c
00000370 printint
00000778 digits.1040
00000000 umalloc.c
00000a24 freep
00000a28 base
00000070 strcpy
00000410 printf
00000290 memmove
0000030a mknod
00000180 gets
00000342 getpid
00000670 malloc
00000352 sleep
000002d2 pipe
000002e2 write
0000031a fstat
000002f2 kill
00000332 chdir
000002fa exec
000002ca wait
000002da read
00000312 unlink
000002ba fork
0000034a sbrk
0000035a uptime
00000a24 __bss_start
00000120 memset
00000000 main
00000362 getcount
000000a0 strcmp
0000033a dup
00000200 stat
00000a24 _edata
00000a30 _end
00000322 link
000002c2 exit
00000250 atoi
000000f0 strlen
00000302 open
00000140 strchr
0000032a mkdir
000002ea close
000005e0 free
